<?xml version="1.0" encoding="UTF-8" standalone="no"?>
<svg
   xmlns:dc="http://purl.org/dc/elements/1.1/"
   xmlns:cc="http://creativecommons.org/ns#"
   xmlns:rdf="http://www.w3.org/1999/02/22-rdf-syntax-ns#"
   xmlns:svg="http://www.w3.org/2000/svg"
   xmlns="http://www.w3.org/2000/svg"
   xmlns:sodipodi="http://sodipodi.sourceforge.net/DTD/sodipodi-0.dtd"
   xmlns:inkscape="http://www.inkscape.org/namespaces/inkscape"
   width="20"
   height="20"
   viewBox="0 0 20 20"
   version="1.1"
   id="svg4"
   sodipodi:docname="Megapphone.svg"
   inkscape:version="0.92.3 (2405546, 2018-03-11)">
  <metadata
     id="metadata10">
    <rdf:RDF>
      <cc:Work
         rdf:about="">
        <dc:format>image/svg+xml</dc:format>
        <dc:type
           rdf:resource="http://purl.org/dc/dcmitype/StillImage" />
        <dc:title></dc:title>
      </cc:Work>
    </rdf:RDF>
  </metadata>
  <defs
     id="defs8" />
  <sodipodi:namedview
     pagecolor="#ffffff"
     bordercolor="#666666"
     borderopacity="1"
     objecttolerance="10"
     gridtolerance="10"
     guidetolerance="10"
     inkscape:pageopacity="0"
     inkscape:pageshadow="2"
     inkscape:window-width="1920"
     inkscape:window-height="1017"
     id="namedview6"
     showgrid="false"
     inkscape:zoom="9.8333333"
     inkscape:cx="-23.07909"
     inkscape:cy="7.2859962"
     inkscape:window-x="-8"
     inkscape:window-y="-8"
     inkscape:window-maximized="1"
     inkscape:current-layer="svg4" />
  <path
     d="M 2.8874707,12.516409 C 2.2343069,13.15824 1.681269,13.349639 0.81064467,13.135215 L 2.8812128,16.434313 C 3.0822465,15.647134 3.518732,15.205336 4.4495881,15.006023 L 16.455286,12.320692 11.499845,4.4258841 Z m 8.8548663,1.9478 -0.365302,1.523987 c -0.07353,0.271987 -0.305853,0.484972 -0.601537,0.554768 l -2.3091487,0.556925 c -0.285514,0.06835 -0.5890204,-0.0087 -0.7963119,-0.201472 l -1.2312331,-1.231855 1.2554823,-0.284219 0.505322,0.554047 c 0.1376727,0.127358 0.3379239,0.178446 0.527224,0.133834 L 9.9768395,15.76442 c 0.1971225,-0.04604 0.3512215,-0.1878 0.3997195,-0.368406 l 0.126722,-0.651903 z M 18.562618,6.3571331 16.463107,7.5177534 15.87174,6.6096921 17.972816,5.4497911 Z m -3.438692,-0.835388 -1.044279,-0.443237 1.049755,-2.0967441 1.044279,0.443957 z m 4.395362,4.4302173 -2.504707,-0.1252 0.06336,-1.057006 2.506271,0.12592 z"
     id="path2"
     style="fill:#839496;fill-opacity:1;stroke:#839496;stroke-width:0.75023222;stroke-opacity:1"
     inkscape:connector-curvature="0" />
</svg>
